…
Let's look at a dataset of Roman Catholic dioceses in the United States:


{% highlight r %}
library(historydata)

catholic_dioceses <- as_data_frame(catholic_dioceses)
catholic_dioceses
{% endhighlight %}



{% highlight text %}
## # A tibble: 425 x 6
##    diocese                    rite    lat  long event  date
##    <chr>                      <chr> <dbl> <dbl> <fct>  <dttm>
##  1 Baltimore, Maryland        Latin  39.3 -76.6 erect… 1789-04-06 00:00:00
##  2 New Orleans, Louisiana     Latin  30.0 -90.1 erect… 1793-04-25 00:00:00
##  3 Boston, Massachusetts      Latin  42.4 -71.1 erect… 1808-04-08 00:00:00
##  4 Louisville, Kentucky       Latin  38.3 -85.8 erect… 1808-04-08 00:00:00
##  5 New York, New York         Latin  40.7 -74.0 erect… 1808-04-08 00:00:00
##  6 Philadelphia, Pennsylvania Latin  40.0 -75.2 erect… 1808-04-08 00:00:00
##  7 Richmond, Virginia         Latin  37.5 -77.4 erect… 1820-06-19 00:00:00
##  8 Charleston, South Carolina Latin  32.8 -79.9 erect… 1820-07-11 00:00:00
##  9 Cincinnati, Ohio           Latin  39.1 -84.5 erect… 1821-06-19 00:00:00
## 10 St. Louis, Missouri        Latin  38.6 -90.2 erect… 1826-07-18 00:00:00
## # ... with 415 more rows
…
To illustrate how to actually use the grammar of graphcs in R points, let's
look at a subset of the data that Hans Roslin used in the video. It contains
just a single year of the data (2007).


{% highlight r %}
gapminder_2007 <- read_csv("https://statsmaths.github.io/stat_data/gapminder_2007.csv")
gapminder_2007
{% endhighlight %}



{% highlight text %}
## # A tibble: 142 x 5
##    country     continent life_exp       pop gdp_per_cap
##    <chr>       <chr>        <dbl>     <int>       <dbl>
##  1 Afghanistan Asia          43.8  31889923        975.
##  2 Albania     Europe        76.4   3600523       5937.
##  3 Algeria     Africa        72.3  33333216       6223.
##  4 Angola      Africa        42.7  12420476       4797.
##  5 Argentina   Americas      75.3  40301927      12779.
##  6 Australia   Oceania       81.2  20434176      34435.
##  7 Austria     Europe        79.8   8199783      36126.
##  8 Bahrain     Asia          75.6    708573      29796.
##  9 Bangladesh  Asia          64.1 150448339       1391.
## 10 Belgium     Europe        79.4  10392226      33693.
## # ... with 132 more rows
…
